verilog/control/dumpfile.vcd
$date
	Fri Mar 13 02:26:10 2020
$end
$version
	Icarus Verilog
$end
$timescale
	100ps
$end
$scope module test $end
$var reg 8 ! hi_rom [7:0] $end
$upscope $end
$scope module test $end
$var reg 8 " lo_rom [7:0] $end
$upscope $end
$scope module test $end
$var wire 1 # rom_out_n $end
$upscope $end
$scope module test $end
$var wire 1 $ ram_out_n $end
$upscope $end
$scope module test $end
$var wire 1 % alu_out_n $end
$upscope $end
$scope module test $end
$var wire 1 & uart_out_n $end
$upscope $end
$scope module test $end
$var wire 1 ' ram_in_n $end
$upscope $end
$scope module test $end
$var wire 1 ( marlo_in_n $end
$upscope $end
$scope module test $end
$var wire 1 ) marhi_in_n $end
$upscope $end
$scope module test $end
$var wire 1 * uart_in_n $end
$upscope $end
$scope module test $end
$var wire 1 + pchitmp_in_n $end
$upscope $end
$scope module test $end
$var wire 1 , pclo_in_n $end
$upscope $end
$scope module test $end
$var wire 1 - jmp_in_n $end
$upscope $end
$scope module test $end
$var wire 1 . jmpo_in_n $end
$upscope $end
$scope module test $end
$var wire 4 / reg_x_addr [3:0] $end
$upscope $end
$scope module test $end
$var wire 4 0 reg_y_addr [3:0] $end
$upscope $end
$scope module test $end
$var wire 5 1 alu_op [4:0] $end
$upscope $end
$scope module test $end
$var wire 1 2 force_x_val_to_zero_n $end
$upscope $end
$scope module test $end
$var wire 1 3 ram_zp_n $end
$upscope $end
$enddefinitions $end
#0
$dumpvars
x3
x2
b0xxxx 1
bx 0
b0 /
x.
x-
x,
x+
x*
x)
x(
x'
x&
x%
x$
x#
bz "
b0 !
$end
#120
0'
b0zzzz 1
13
1&
1%
1$
12
0#
1.
1-
1,
1+
1*
1)
1(
#1010
b1 /
b10 !
#1130
1'
0(
#2020
b0 /
b1zzzz 1
b1 !
#2140
1(
#3030
b1111 /
b11111 !
#4040
b0 /
b0zzzz 1
b100000 !
#4160
0$
1#
#5050
b1 /
b100010 !
#5170
0(
#6060
b0 /
b1zzzz 1
b100001 !
#6180
1(
#7070
b1111 /
b111111 !
#8080
b0 /
b0zzzz 1
b1000000 !
#8200
03
#9090
b1 /
b1000010 !
#9210
0(
#10100
b0 /
b1zzzz 1
b1000001 !
#10220
1(
#11110
b1111 /
b1011111 !
#12120
b0 /
b0xxxx 1
b1100000 !
bx "
#12240
0'
0%
b1 1
1$
#13130
b1 /
b1100010 !
#13250
0(
#14140
b0 /
b1100001 !
#14260
1(
#15150
b1111 /
b1111111 !
#16160
b1 /
b10000011 !
b101xxxx "
#16280
1'
13
b10101 1
02
#16420
0(
#17170
b101 1
b10000010 !
#18180
b1111 1
b1111xxxx "
#19190
b0 /
b10101 1
b10100001 !
b101xxxx "
#19310
0'
1(
12
#19450
1'
#20200
b101 1
b10100000 !
#20340
0'
#21210
b1111 1
b1111xxxx "
#22220
b1111 /
b10111110 !
#22340
1'
#23230
b0 /
b0xxxx 1
b11000000 !
bx "
#23350
0'
0&
1%
#24240
b1 /
b11000010 !
#24360
1'
0(
#25250
b1111 /
b1xxxx 1
b11011111 !
#25370
1(
#26260
b0 /
b0xxxx 1
b11100000 !
#26380
0'
03
#27270
b1111 /
b1xxxx 1
b11111111 !
